TAP 01 Report
…
Rows: 1602 Columns: 10
── Column specification ────────────────────────────────────────────────────────
Delimiter: ","
chr (5): id, trial_arm, role, time, reliable_change
dbl (5): months, engagement, burnout, anxiety, stress

ℹ Use `spec()` to retrieve the full column specification for this data.
ℹ Specify the column types or set `show_col_types = FALSE` to quiet this message.

mutate(dplyr::filter(mindful_tib, time=='Follow-up'))

# A tibble: 534 × 10
   id    trial_arm          role  time  months engagement burnout anxiety stress
   <chr> <chr>              <chr> <chr>  <dbl>      <dbl>   <dbl>   <dbl>  <dbl>
 1 KydkG Psychosocial info… Medi… Foll…   4.62          2      25      10     16
 2 FLTyD Mindfullness       Supp… Foll…   4.51          3      34       6     16
 3 UiV41 Mindfullness       Medi… Foll…   4.19          2      23       8     14
 4 Ckdq3 Psychosocial info… Medi… Foll…   4.25          3      37      10     30
 5 nasw4 Mindfullness       Medi… Foll…   4.61          1      21       0      8
 6 pMRx0 Mindfullness       Supp… Foll…   4.17          7       8       0     20
 7 GppOj Psychosocial info… Medi… Foll…   4.31          5      44      20     26
 8 t5MMU Psychosocial info… Medi… Foll…   4.18          3      20      10     18
 9 nZmqB Psychosocial info… Medi… Foll…   4.57          1      37      18     24
10 XpkQk Psychosocial info… Medi… Foll…   4.73          1      31       2      8
# ℹ 524 more rows
# ℹ 1 more variable: reliable_change <chr>
…
